# ./rover-generator/rovgen seed rovers waypoints objectives cameras n-goals
./rover-generator/rovgen 1 10 100 50 3 50
./rover-generator/rovgen 1 11 105 55 4 55
./rover-generator/rovgen 1 12 110 60 5 60
./rover-generator/rovgen 1 13 115 65 6 65
./rover-generator/rovgen 1 14 120 70 7 70
./rover-generator/rovgen 1 15 125 75 8 75
